…
``` r
paygap %>% 
  arrange(-abs(diff_mean_hourly_percent)) %>% 
  select(employer_name, diff_mean_hourly_percent, employer_size)
```

    ## # A tibble: 48,711 x 3
    ##    employer_name                                diff_mean_hourly_~ employer_size
    ##    <chr>                                                     <dbl> <chr>        
    ##  1 BROOKNIGHT SECURITY PAY LTD                               -500. 500 to 999   
    ##  2 COMPLETE CARE HOLDINGS LIMITED                            -400  250 to 499   
    ##  3 ANKH CONCEPTS HOSPITALITY MANAGEMENT LIMITED              -380. 250 to 499   
    ##  4 COMPLETE CARE HOLDINGS LIMITED                            -271. 500 to 999   
    ##  5 FORTEL SERVICES LIMITED                                   -184. 1000 to 4999 
    ##  6 REVOLUCION DE CUBA LIMITED                                -182  500 to 999   
    ##  7 NSS CLEANING LIMITED                                      -181. 250 to 499   
    ##  8 CONCEPT RECRUITMENT GROUP LIMITED                         -178. 1000 to 4999 
    ##  9 MILLWALL HOLDINGS PLC                                      159  Less than 250
    ## 10 INBRELLA LIMITED                                          -150  250 to 499   
    ## # ... with 48,701 more rows

``` r
paygap %>% 
  arrange(-abs(diff_median_hourly_percent)) %>% 
  select(employer_name, diff_median_hourly_percent, employer_size)
```

    ## # A tibble: 48,711 x 3
    ##    employer_name                                diff_median_hourl~ employer_size
    ##    <chr>                                                     <dbl> <chr>        
    ##  1 ANKH CONCEPTS HOSPITALITY MANAGEMENT LIMITED              -500. 250 to 499   
    ##  2 NSS CLEANING LIMITED                                      -487. 250 to 499   
    ##  3 G4S SECURE SOLUTIONS (UK) LIMITED                         -276. 5000 to 19,9~
    ##  4 AUTO-SLEEPERS GROUP LIMITED                               -220. 250 to 499   
    ##  5 AUTO-SLEEPERS INVESTMENTS LIMITED                         -220. 250 to 499   
    ##  6 BAR 2010 LIMITED                                          -196. 250 to 499   
    ##  7 INBRELLA LIMITED                                          -164  250 to 499   
    ##  8 DONALDSON TIMBER ENGINEERING LIMITED                      -134  250 to 499   
    ##  9 FORTEL SERVICES LIMITED                                   -129. 1000 to 4999 
    ## 10 SPRINGFIELD PROPERTIES PLC                                -126. 500 to 999   
    ## # ... with 48,701 more rows
…
