…
``` r
horror_movies %>% 
  count(budget, sort = TRUE)
```

    ## # A tibble: 783 x 2
    ##     budget     n
    ##      <dbl> <int>
    ##  1       0 27339
    ##  2 1000000   172
    ##  3   10000   161
    ##  4    5000   156
    ##  5    1000   116
    ##  6  500000   116
    ##  7    2000   113
    ##  8  100000   109
    ##  9     500    98
    ## 10 2000000    98
    ## # ... with 773 more rows
…
