…
    ## [1]    1 3990

``` r
sevens$row_id[1] <- 1
sevens$row_id[3990] <- 3990

sevens %>% 
  pivot_longer(starts_with("team")) %>% 
  select(row_id, name, value, winner, loser)
```

    ## # A tibble: 15,932 x 5
    ##    row_id name   value                  winner                 loser      
    ##     <dbl> <chr>  <chr>                  <chr>                  <chr>      
    ##  1      1 team_1 New Zealand Wild Ducks New Zealand Wild Ducks Japan      
    ##  2      1 team_2 Japan                  New Zealand Wild Ducks Japan      
    ##  3      2 team_1 England                England                Australia  
    ##  4      2 team_2 Australia              England                Australia  
    ##  5      3 team_1 Canada                 Canada                 Netherlands
    ##  6      3 team_2 Netherlands            Canada                 Netherlands
    ##  7      4 team_1 Hong Kong              Hong Kong              Fiji       
    ##  8      4 team_2 Fiji                   Hong Kong              Fiji       
    ##  9      5 team_1 United States          United States          Scotland   
    ## 10      5 team_2 Scotland               United States          Scotland   
    ## # ... with 15,922 more rows
…
``` r
sevens %>% 
  count(stage, sort = TRUE)
```

    ## # A tibble: 126 x 2
    ##    stage                        n
    ##    <chr>                    <int>
    ##  1 Pool B                    1199
    ##  2 Pool A                    1187
    ##  3 Pool C                     660
    ##  4 Quarter-Final              495
    ##  5 Pool                       486
    ##  6 Semi-Final                 479
    ##  7 Group Stage                337
    ##  8 Final                      300
    ##  9 5th-8th Place Semi Final   245
    ## 10 Group B                    230
    ## # ... with 116 more rows
…
