…
``` r
babynames %>%
  group_by(name) %>%
  summarize(min = min(n),
            max = max(n),
            diff = max - min) %>%
  arrange(-diff)
```

    ## # A tibble: 97,310 x 4
    ##    name       min   max  diff
    ##    <chr>    <dbl> <dbl> <dbl>
    ##  1 Linda        5 99686 99681
    ##  2 James       18 94756 94738
    ##  3 Michael      5 92695 92690
    ##  4 Robert       7 91642 91635
    ##  5 John        10 88318 88308
    ##  6 David        5 86251 86246
    ##  7 Mary         5 73982 73977
    ##  8 William     14 66986 66972
    ##  9 Jennifer     5 63604 63599
    ## 10 Lisa         5 60266 60261
    ## # ... with 97,300 more rows
…
``` r
babynames %>%
  filter(name == "James") %>%
  arrange(year) %>%
  select(year, n)
```

    ## # A tibble: 276 x 2
    ##     year     n
    ##    <dbl> <dbl>
    ##  1  1880    22
    ##  2  1880  5927
    ##  3  1881    24
    ##  4  1881  5441
    ##  5  1882    18
    ##  6  1882  5892
    ##  7  1883    25
    ##  8  1883  5223
    ##  9  1884    33
    ## 10  1884  5693
    ## # ... with 266 more rows
…
### Checking wrongly predicted names of Model 2

``` r
(names <- mod2_aug %>%
  filter(sex != .pred_class) %>%
  count(name, sort = TRUE))
```

    ## # A tibble: 32 x 2
    ##    name         n
    ##    <chr>    <int>
    ##  1 Allyn       28
    ##  2 Cameron     23
    ##  3 Courtney    21
    ##  4 Elisha      19
    ##  5 Ian         19
    ##  6 Shannon     16
    ##  7 Ben         15
    ##  8 Romaine     14
    ##  9 Raven       13
    ## 10 Tristan     12
    ## # ... with 22 more rows
…
