…
``` r
games %>%
  count(mechanic, sort = TRUE)
```

    ## # A tibble: 8,292 x 2
    ##    mechanic                                           n
    ##    <chr>                                          <int>
    ##  1 <NA>                                            1590
    ##  2 ['Hand Management']                              428
    ##  3 ['Hexagon Grid']                                 389
    ##  4 ['Roll / Spin and Move']                         381
    ##  5 ['Dice Rolling']                                 365
    ##  6 ['Tile Placement']                               287
    ##  7 ['Dice Rolling', 'Hexagon Grid', 'Simulation']   264
    ##  8 ['Dice Rolling', 'Hexagon Grid']                 252
    ##  9 ['Set Collection']                               237
    ## 10 ['Hand Management', 'Set Collection']            180
    ## # ... with 8,282 more rows
…
