…
``` r
chocolate %>%
  gather() %>%
  count(value, sort = TRUE)
```

    ## # A tibble: 5,433 x 2
    ##    value      n
    ##    <chr>  <int>
    ##  1 3       1546
    ##  2 U.S.A.  1169
    ##  3 70      1046
    ##  4 B,S,C    999
    ##  5 2        783
    ##  6 B,S      718
    ##  7 4        581
    ##  8 3.5      565
    ##  9 3.25     464
    ## 10 2.75     333
    ## # ... with 5,423 more rows
…
