…
    ## # A tibble: 3 x 3
    ##   activity_mob                               n       prop
    ##   <chr>                                  <int>      <dbl>
    ## 1 National youth meetings               139800 0.849     
    ## 2 Transnational youth meetings           24834 0.151     
    ## 3 Youth Exchanges - Programme Countries      1 0.00000607

``` r
propfun(duration)
```

    ## # A tibble: 48 x 3
    ##    duration     n    prop
    ##       <dbl> <int>   <dbl>
    ##  1        1 88142 0.535  
    ##  2        3 25343 0.154  
    ##  3        2 20942 0.127  
    ##  4        4 10547 0.0641 
    ##  5        5  8177 0.0497 
    ##  6        6  4364 0.0265 
    ##  7        7  3761 0.0228 
    ##  8        8  1763 0.0107 
    ##  9       10   608 0.00369
    ## 10        9   433 0.00263
    ## # ... with 38 more rows

``` r
propfun(receiving_city)
```

    ## # A tibble: 2,676 x 3
    ##    receiving_city     n    prop
    ##    <chr>          <int>   <dbl>
    ##  1 Berlin          2877 0.0175 
    ##  2 London          2268 0.0138 
    ##  3 Dublin          2201 0.0134 
    ##  4 Budapest        2053 0.0125 
    ##  5 Tallinn         1581 0.00960
    ##  6 Paris           1530 0.00929
    ##  7 Hagen           1431 0.00869
    ##  8 Strasbourg      1386 0.00842
    ##  9 Luxembourg      1276 0.00775
    ## 10 Ljubljana       1172 0.00712
    ## # ... with 2,666 more rows
…
    ## # A tibble: 1 x 3
    ##   participant_profile      n  prop
    ##   <chr>                <int> <dbl>
    ## 1 Learner             164635     1

``` r
erasmus %>%
  group_by(participant_gender) %>%
  count(receiving_city, sort = TRUE)
```

    ## # A tibble: 5,060 x 3
    ## # Groups:   participant_gender [3]
    ##    participant_gender receiving_city     n
    ##    <chr>              <chr>          <int>
    ##  1 Male               Berlin          1445
    ##  2 Female             Berlin          1387
    ##  3 Female             London          1287
    ##  4 Female             Dublin          1199
    ##  5 Female             Budapest        1067
    ##  6 Male               Dublin           988
    ##  7 Male               Budapest         984
    ##  8 Male               London           900
    ##  9 Female             Paris            861
    ## 10 Female             Tallinn          861
    ## # ... with 5,050 more rows

``` r
erasmus %>%
  filter(100 < abs(participant_age)) %>%
  count(participant_age)
```

    ## # A tibble: 38 x 2
    ##    participant_age     n
    ##              <dbl> <int>
    ##  1           -7184     1
    ##  2           -5182     1
    ##  3           -4184     1
    ##  4           -2184     1
    ##  5            -986     1
    ##  6            -984     2
    ##  7            -983     1
    ##  8            -974     1
    ##  9            -971     1
    ## 10            -962     1
    ## # ... with 28 more rows
…
