…
freedom_nest %>%
  filter(term == "year") %>%
  select(country, estimate) %>%
  arrange(estimate)
```

    ## # A tibble: 193 x 2
    ##    country             estimate
    ##    <chr>                  <dbl>
    ##  1 Tunisia              -0.222 
    ##  2 Bhutan               -0.219 
    ##  3 Indonesia            -0.174 
    ##  4 Tonga                -0.162 
    ##  5 Liberia              -0.136 
    ##  6 Croatia              -0.129 
    ##  7 Timor-Leste          -0.128 
    ##  8 Iraq                 -0.105 
    ##  9 Nigeria              -0.102 
    ## 10 Antigua and Barbuda  -0.0995
    ## # ... with 183 more rows

``` r
freedom_nest %>%
  filter(term == "year") %>%
  select(country, estimate1) %>%
  arrange(estimate1)
```

    ## # A tibble: 193 x 2
    ##    country      estimate1
    ##    <chr>            <dbl>
    ##  1 Bhutan         -0.118 
    ##  2 Sierra Leone   -0.110 
    ##  3 Tunisia        -0.104 
    ##  4 Liberia        -0.0988
    ##  5 Myanmar        -0.0862
    ##  6 Viet Nam       -0.0821
    ##  7 Brazil         -0.0821
    ##  8 Senegal        -0.0797
    ##  9 Croatia        -0.0769
    ## 10 Slovakia       -0.0759
    ## # ... with 183 more rows
…
# Difference between first and last rating

``` r
freedom %>%
  group_by(country) %>%
  summarize(diff = cl[year == max(year)] - cl[year == min(year)]) %>%
  arrange(-diff)
```

    ## # A tibble: 193 x 2
    ##    country                             diff
    ##    <chr>                              <dbl>
    ##  1 Central African Republic               3
    ##  2 Eritrea                                3
    ##  3 Venezuela (Bolivarian Republic of)     3
    ##  4 Honduras                               2
    ##  5 Mali                                   2
    ##  6 Russian Federation                     2
    ##  7 South Sudan                            2
    ##  8 Bangladesh                             1
    ##  9 Belarus                                1
    ## 10 Cameroon                               1
    ## # ... with 183 more rows

``` r
freedom %>%
  group_by(country) %>%
  summarize(diff = pr[year == max(year)] - pr[year == min(year)]) %>%
  arrange(-diff)
```

    ## # A tibble: 193 x 2
    ##    country                             diff
    ##    <chr>                              <dbl>
    ##  1 Central African Republic               4
    ##  2 Mali                                   4
    ##  3 Russian Federation                     4
    ##  4 Thailand                               4
    ##  5 Venezuela (Bolivarian Republic of)     4
    ##  6 Congo                                  3
    ##  7 Kyrgyzstan                             3
    ##  8 Bangladesh                             2
    ##  9 Belarus                                2
    ## 10 Benin                                  2
    ## # ... with 183 more rows
…
