…
``` r
sports %>%
  select(partic_coed_men) %>%
  count(partic_coed_men, sort = TRUE)
```

    ## # A tibble: 52 x 2
    ##    partic_coed_men      n
    ##              <dbl>  <int>
    ##  1              NA 131560
    ##  2               1     65
    ##  3               3     65
    ##  4               2     61
    ##  5               6     54
    ##  6               5     48
    ##  7               8     48
    ##  8               7     46
    ##  9               4     43
    ## 10              12     34
    ## # ... with 42 more rows
…
