…
# EDA

``` r
eurovision %>% 
  group_by(artist_country) %>% 
  summarize(total_first = sum(rank == 1, na.rm = TRUE)) %>% 
  arrange(-total_first)
```

    ## # A tibble: 52 x 2
    ##    artist_country total_first
    ##    <chr>                <int>
    ##  1 Sweden                  10
    ##  2 Ireland                  7
    ##  3 Netherlands              7
    ##  4 France                   5
    ##  5 Israel                   5
    ##  6 Luxembourg               5
    ##  7 Norway                   5
    ##  8 Ukraine                  5
    ##  9 United Kingdom           5
    ## 10 Denmark                  4
    ## # ... with 42 more rows

``` r
eurovision %>% 
  group_by(artist_country) %>% 
  summarize(total_wins = sum(winner)) %>% 
  arrange(-total_wins)
```

    ## # A tibble: 52 x 2
    ##    artist_country total_wins
    ##    <chr>               <int>
    ##  1 Sweden                 13
    ##  2 Ukraine                13
    ##  3 Ireland                12
    ##  4 Denmark                10
    ##  5 Greece                 10
    ##  6 Israel                 10
    ##  7 Norway                 10
    ##  8 Russia                 10
    ##  9 Azerbaijan              9
    ## 10 Netherlands             9
    ## # ... with 42 more rows

``` r
eurovision %>% 
  group_by(artist_country) %>% 
  summarize(mean_rank = mean(rank, na.rm = TRUE)) %>% 
  arrange(mean_rank)
```

    ## # A tibble: 52 x 2
    ##    artist_country      mean_rank
    ##    <chr>                   <dbl>
    ##  1 Ukraine                  6.63
    ##  2 Russia                   6.65
    ##  3 Italy                    7.17
    ##  4 Australia                7.33
    ##  5 Sweden                   7.59
    ##  6 Azerbaijan               8.15
    ##  7 Serbia & Montenegro      8.5 
    ##  8 Luxembourg               8.82
    ##  9 Armenia                  8.92
    ## 10 Serbia                   9   
    ## # ... with 42 more rows
