…
``` r
wind %>% 
  select(date, wind_capacity) %>% 
  summarize(diff = diff(date)) %>% 
  count(diff) %>% 
  arrange(-n)
```

    ## # A tibble: 58 x 2
    ##    diff        n
    ##    <drtn>  <int>
    ##  1  0 days    60
    ##  2  1 days    22
    ##  3  7 days    19
    ##  4  2 days    15
    ##  5  5 days    15
    ##  6  8 days    15
    ##  7  4 days    13
    ##  8 14 days    13
    ##  9  3 days    11
    ## 10 12 days    11
    ## # ... with 48 more rows
