…
*race* has a string called N/A, this should be replaced with NA values
as missing data.

``` r
artist %>% 
  mutate(race = ifelse(race == "N/A", NA, race))
```

    ## # A tibble: 3,162 x 14
    ##    name           edition_number  year nationality nationality_oth~ gender race 
    ##    <chr>                   <dbl> <dbl> <chr>       <chr>            <chr>  <chr>
    ##  1 Aaron Douglas               9  1991 American    American         Male   Blac~
    ##  2 Aaron Douglas              10  1996 American    American         Male   Blac~
    ##  3 Aaron Douglas              11  2001 American    American         Male   Blac~
    ##  4 Aaron Douglas              12  2005 American    American         Male   Blac~
    ##  5 Aaron Douglas              13  2009 American    American         Male   Blac~
    ##  6 Aaron Douglas              14  2013 American    American         Male   Blac~
    ##  7 Aaron Douglas              15  2016 American    American         Male   Blac~
    ##  8 Aaron Douglas              16  2020 American    American         Male   Blac~
    ##  9 Adélaïde Labi~             14  2013 French      French           Female White
    ## 10 Adélaïde Labi~             15  2016 French      French           Female White
    ## # ... with 3,152 more rows, and 7 more variables: ethnicity <chr>, book <chr>,
    ## #   space_ratio_per_page_total <dbl>, unique_id <dbl>,
    ## #   moma_count_to_year <dbl>, whitney_count_to_year <dbl>, race_nwi <chr>
…
