…
``` r
beecolony %>%
  arrange(-colony_added) %>%
  select(colony_added)
```

    ## # A tibble: 685 x 1
    ##    colony_added
    ##           <dbl>
    ##  1       250000
    ##  2       240000
    ##  3       240000
    ##  4       215000
    ##  5       210000
    ##  6       200000
    ##  7       200000
    ##  8       184000
    ##  9       176000
    ## 10       175000
    ## # ... with 675 more rows
…
