…
There does not appear to be a statistically significant difference
between *human* and *veterinary* drugs with respect to whether they were
*authorized* or *withdrawn*.

``` r
drugs %>% 
  group_by(active_substance) %>% 
  count(authorisation_status, sort = TRUE) %>% 
  filter(authorisation_status == "withdrawn")
```

    ## # A tibble: 267 x 3
    ## # Groups:   active_substance [267]
    ##    active_substance               authorisation_status     n
    ##    <chr>                          <chr>                <int>
    ##  1 clopidogrel                    withdrawn                8
    ##  2 pioglitazone hydrochloride     withdrawn                6
    ##  3 adalimumab                     withdrawn                5
    ##  4 docetaxel                      withdrawn                5
    ##  5 insulin human                  withdrawn                5
    ##  6 ribavirin                      withdrawn                5
    ##  7 aliskiren                      withdrawn                4
    ##  8 clopidogrel (as hydrochloride) withdrawn                4
    ##  9 meloxicam                      withdrawn                4
    ## 10 aliskiren, hydrochlorothiazide withdrawn                3
    ## # ... with 257 more rows
…
dlong_cluster <- dlong %>% 
  left_join(new_df)
```

    ## Joining, by = "active_substance"

``` r
dlong_cluster %>% 
  filter(!is.na(main_thera)) %>% 
  group_by(cluster, main_thera) %>% 
  count(active_substance) %>% 
  arrange(-cluster, -n) 
```

    ## # A tibble: 1,806 x 4
    ## # Groups:   cluster, main_thera [592]
    ##    cluster main_thera   active_substance           n
    ##      <int> <chr>        <chr>                  <int>
    ##  1       3 Hemophilia A octocog alfa               5
    ##  2       3 Hemophilia A simoctocog alfa            2
    ##  3       3 Hemophilia A damoctocog alfa pegol      1
    ##  4       3 Hemophilia A efmoroctocog alfa          1
    ##  5       3 Hemophilia A emicizumab                 1
    ##  6       3 Hemophilia A lonoctocog alfa            1
    ##  7       3 Hemophilia A moroctocog alfa            1
    ##  8       3 Hemophilia A rurioctocog alfa pegol     1
    ##  9       3 Hemophilia A susoctocog alfa            1
    ## 10       3 Hemophilia A turoctocog alfa            1
    ## # ... with 1,796 more rows
…
## Biosimilar

``` r
drugs %>% 
  filter(biosimilar) %>% 
  group_by(active_substance) %>% 
  summarize(n = n_distinct(marketing_authorisation_holder_company_name)) %>% 
  arrange(-n)
```

    ## # A tibble: 21 x 2
    ##    active_substance     n
    ##    <chr>            <int>
    ##  1 adalimumab           9
    ##  2 bevacizumab          8
    ##  3 pegfilgrastim        8
    ##  4 filgrastim           7
    ##  5 teriparatide         6
    ##  6 trastuzumab          6
    ##  7 infliximab           4
    ##  8 epoetin alfa         3
    ##  9 etanercept           3
    ## 10 insulin aspart       3
    ## # ... with 11 more rows
…
