…
``` r
nyt %>% 
  count(author, sort = TRUE)
```

    ## # A tibble: 2,206 x 2
    ##    author                 n
    ##    <chr>              <int>
    ##  1 Danielle Steel       957
    ##  2 Stephen King         892
    ##  3 John Grisham         789
    ##  4 Taylor Caldwell      524
    ##  5 James A. Michener    494
    ##  6 Robert Ludlum        406
    ##  7 Leon Uris            405
    ##  8 Mary Higgins Clark   403
    ##  9 David Baldacci       396
    ## 10 Nicholas Sparks      390
    ## # ... with 2,196 more rows
…
nyt_titles %>% 
  filter(author %in% mult_author) %>% 
  group_by(author) %>% 
  summarize(m = mean(debut_rank)) %>% 
  arrange(-m) 
```

    ## # A tibble: 979 x 2
    ##    author                       m
    ##    <chr>                    <dbl>
    ##  1 "Romain Gary"             16  
    ##  2 "\"Miss Read\""           15.5
    ##  3 "May Sarton"              15.5
    ##  4 "B.J. Chute"              15  
    ##  5 "C.Y. Lee"                15  
    ##  6 "Christina Baker Kline"   15  
    ##  7 "Hamilton Basso"          15  
    ##  8 "Katherine Wigmore Eyre"  15  
    ##  9 "Richard Powell"          15  
    ## 10 "Theodore H. White"       15  
    ## # ... with 969 more rows
…
``` r
nyt_titles %>% 
  filter(author == "Danielle Steel") %>% 
  distinct(title)
```

    ## # A tibble: 116 x 1
    ##    title          
    ##    <chr>          
    ##  1 CHILD'S PLAY   
    ##  2 COMING OUT     
    ##  3 COUNTRY        
    ##  4 CROSSINGS      
    ##  5 A GOOD WOMAN   
    ##  6 DADDY          
    ##  7 DADDY'S GIRLS  
    ##  8 DANGEROUS GAMES
    ##  9 DATING GAME    
    ## 10 ECHOES         
    ## # ... with 106 more rows
…
