…
``` r
artists <- artists %>% 
  rename_with(~gsub("artists", "artist", .x))
```

Is artist_share = artist_n/all_workers_n?

``` r
artists %>% 
  mutate(new = artist_n/all_workers_n) %>% 
  select(artist_share, new)
```

    ## # A tibble: 3,380 x 2
    ##    artist_share       new
    ##           <dbl>     <dbl>
    ##  1     0.000510  0.000510
    ##  2     0.000558  0.000558
    ##  3     0.000261  0.000261
    ##  4    NA        NA       
    ##  5     0.000518  0.000518
    ##  6     0.000336  0.000336
    ##  7     0.000519  0.000519
    ##  8    NA         0       
    ##  9     0.00412   0.00412 
    ## 10     0.00105   0.00105 
    ## # ... with 3,370 more rows
…
    ## # A tibble: 1 x 1
    ##   `mean(artist_share == new, na.rm = TRUE)`
    ##                                       <dbl>
    ## 1                                     0.475

``` r
artists %>% 
  mutate(new = artist_n/all_workers_n) %>% 
  filter(new != artist_share) %>% 
  select(-location_quotient)
```

    ## # A tibble: 1,012 x 7
    ##    state        race     type       all_workers_n artist_n artist_share      new
    ##    <chr>        <chr>    <chr>              <dbl>    <dbl>        <dbl>    <dbl>
    ##  1 Florida      Hispanic Architects       2752995     2900     0.00105  0.00105 
    ##  2 Georgia      Hispanic Architects        467240      370     0.000792 0.000792
    ##  3 New York     Hispanic Architects       1819490     1830     0.00101  0.00101 
    ##  4 Ohio         Hispanic Architects        204545      225     0.00110  0.00110 
    ##  5 Pennsylvania Hispanic Architects        423215      185     0.000437 0.000437
    ##  6 Tennessee    Hispanic Architects        167595       20     0.000119 0.000119
    ##  7 Arizona      White    Architects       1857110     2420     0.00130  0.00130 
    ##  8 California   White    Architects       7686845    15935     0.00207  0.00207 
    ##  9 Colorado     White    Architects       2172170     4625     0.00213  0.00213 
    ## 10 Connecticut  White    Architects       1329540     2670     0.00201  0.00201 
    ## # ... with 1,002 more rows
…
``` r
artists %>% 
  distinct(all_workers_n, state, race) %>% 
  arrange(state)
```

    ## # A tibble: 260 x 3
    ##    state   race             all_workers_n
    ##    <chr>   <chr>                    <dbl>
    ##  1 Alabama Hispanic                 88165
    ##  2 Alabama White                  1496830
    ##  3 Alabama African-American        581200
    ##  4 Alabama Asian                    33515
    ##  5 Alabama Other                    43075
    ##  6 Alaska  Hispanic                 26875
    ##  7 Alaska  White                   253950
    ##  8 Alaska  African-American         13760
    ##  9 Alaska  Asian                    26420
    ## 10 Alaska  Other                    71330
    ## # ... with 250 more rows
…
