…
    ## Joining, by = "forecast_outlook"

The *weather forecasts* dataset contains abbreviated weather outlooks,
while the *outlook meanings* dataset contains non-abbreviated weather
outlooks. The *weather forecasts* dataset and the *outlook meanings*
dataset were joined together using the “forecast_outlook” column as a
common key. This resulted in a combined dataset that includes both the
abbreviated and non-abbreviated weather outlooks from the two datasets.

``` r
weather_forecasts %>% 
  count(meaning, sort = TRUE)
```

    ## # A tibble: 24 x 2
    ##    meaning            n
    ##    <chr>          <int>
    ##  1 Sunny         173769
    ##  2 Partly Cloudy 104907
    ##  3 Rain Showers   95671
    ##  4 Mostly Cloudy  80178
    ##  5 Thunderstorms  72927
    ##  6 <NA>           37875
    ##  7 Rain           24198
    ##  8 Snow           14240
    ##  9 Windy          13368
    ## 10 Snow Showers    7924
    ## # ... with 14 more rows
…
