…
## Model Prediction

``` r
pell %>% 
  filter(award > 0) %>% 
  mutate(overbelow = 
           ifelse(log(award) > predict(model, pell %>% filter(award > 0)), 1, 0)) %>% 
  group_by(state) %>% 
  summarize(avg = mean(overbelow == 1)) %>% 
  arrange(-avg)
```

    ## # A tibble: 59 x 2
    ##    state   avg
    ##    <chr> <dbl>
    ##  1 FM    0.842
    ##  2 GU    0.679
    ##  3 ID    0.675
    ##  4 VI    0.643
    ##  5 PR    0.637
    ##  6 NY    0.596
    ##  7 WV    0.590
    ##  8 KY    0.564
    ##  9 MS    0.562
    ## 10 SC    0.562
    ## # ... with 49 more rows
…
