…
``` r
simpsons_profiles <- simpsons_profiles %>% 
  left_join(characters %>% select(character = name, image_link))
```

    ## Joining, by = "character"

``` r
simpsons_profiles %>% 
  distinct(item)
```

    ## # A tibble: 799 x 1
    ##    item                                 
    ##    <chr>                                
    ##  1 "disorganized (not self-disciplined)"
    ##  2 "impulsive (not cautious)"           
    ##  3 "messy (not neat)"                   
    ##  4 "\U0001f6cc (not \U0001f9d7)"        
    ##  5 "loud (not quiet)"                   
    ##  6 "goof-off (not studious)"            
    ##  7 "lazy (not diligent)"                
    ##  8 "chaotic (not orderly)"              
    ##  9 "clumsy (not coordinated)"           
    ## 10 "cannibal (not vegan)"               
    ## # ... with 789 more rows
…
