…
joined_data <- indoor_pollution %>% 
  full_join(fuel_access) 
```

    ## Joining, by = c("entity", "code", "year")

# EDA

``` r
indoor_pollution %>% 
  count(entity)
```

    ## # A tibble: 267 x 2
    ##    entity                   n
    ##    <chr>                <int>
    ##  1 Afghanistan             30
    ##  2 Africa                  30
    ##  3 African Region          30
    ##  4 African Union           30
    ##  5 Albania                 30
    ##  6 Algeria                 30
    ##  7 America                 30
    ##  8 American Samoa          30
    ##  9 Andean Latin America    30
    ## 10 Andorra                 30
    ## # ... with 257 more rows

``` r
indoor_pollution %>% 
  distinct(year) %>% 
  arrange(-year)
```

    ## # A tibble: 30 x 1
    ##     year
    ##    <dbl>
    ##  1  2019
    ##  2  2018
    ##  3  2017
    ##  4  2016
    ##  5  2015
    ##  6  2014
    ##  7  2013
    ##  8  2012
    ##  9  2011
    ## 10  2010
    ## # ... with 20 more rows
…
``` r
joined_data %>%
  filter(year < 0) %>% 
  arrange(year)
```

    ## # A tibble: 1,797 x 8
    ##    entity           code   year deaths_pct access_pct   gdp population continent
    ##    <chr>            <chr> <dbl>      <dbl>      <dbl> <dbl>      <dbl> <chr>    
    ##  1 Afghanistan      AFG    -1e4         NA         NA    NA      14737 <NA>     
    ##  2 Africa           <NA>   -1e4         NA         NA    NA     227611 <NA>     
    ##  3 Albania          ALB    -1e4         NA         NA    NA       1199 <NA>     
    ##  4 Algeria          DZA    -1e4         NA         NA    NA      12090 <NA>     
    ##  5 Andorra          AND    -1e4         NA         NA    NA         25 <NA>     
    ##  6 Angola           AGO    -1e4         NA         NA    NA        379 <NA>     
    ##  7 Antigua and Bar~ ATG    -1e4         NA         NA    NA          1 <NA>     
    ##  8 Argentina        ARG    -1e4         NA         NA    NA      27969 <NA>     
    ##  9 Armenia          ARM    -1e4         NA         NA    NA       9614 <NA>     
    ## 10 Asia             <NA>   -1e4         NA         NA    NA    1184300 <NA>     
    ## # ... with 1,787 more rows

``` r
fuel_access %>% 
  filter(year < 0)
```

    ## # A tibble: 1,797 x 7
    ##    entity      code    year access_pct   gdp population continent
    ##    <chr>       <chr>  <dbl>      <dbl> <dbl>      <dbl> <chr>    
    ##  1 Afghanistan AFG   -10000         NA    NA      14737 <NA>     
    ##  2 Afghanistan AFG    -9000         NA    NA      20405 <NA>     
    ##  3 Afghanistan AFG    -8000         NA    NA      28253 <NA>     
    ##  4 Afghanistan AFG    -7000         NA    NA      39120 <NA>     
    ##  5 Afghanistan AFG    -6000         NA    NA      54166 <NA>     
    ##  6 Afghanistan AFG    -5000         NA    NA      74999 <NA>     
    ##  7 Afghanistan AFG    -4000         NA    NA     306250 <NA>     
    ##  8 Afghanistan AFG    -3000         NA    NA     537500 <NA>     
    ##  9 Afghanistan AFG    -2000         NA    NA     768751 <NA>     
    ## 10 Afghanistan AFG    -1000         NA    NA     999998 <NA>     
    ## # ... with 1,787 more rows
…
## Deaths over time

``` r
indoor_pollution %>% 
  group_by(entity) %>% 
  summarize(diff = deaths_pct[year == 1990] - deaths_pct[year == 2019]) %>% 
  arrange(-diff)
```

    ## # A tibble: 267 x 2
    ##    entity                                   diff
    ##    <chr>                                   <dbl>
    ##  1 China                                    14.1
    ##  2 East Asia                                13.8
    ##  3 Equatorial Guinea                        12.1
    ##  4 Maldives                                 12.1
    ##  5 Southeast Asia, East Asia, and Oceania   11.8
    ##  6 Sudan                                    11.0
    ##  7 Western Pacific Region                   10.9
    ##  8 Yemen                                    10.7
    ##  9 East Asia & Pacific - World Bank region  10.2
    ## 10 Vietnam                                  10.0
    ## # ... with 257 more rows

``` r
tidy_pollution <- indoor_pollution %>% 
  nest(-entity) %>% 
  mutate(model = map(data, ~lm(deaths_pct ~ year, .x)),
         tidy = map(model, broom::tidy)) %>% 
  unnest(tidy)

tidy_pollution %>% 
  filter(term == "year") %>% 
  arrange(-abs(estimate))
```

    ## # A tibble: 267 x 8
    ##    entity             data     model term  estimate std.error statistic  p.value
    ##    <chr>              <list>   <lis> <chr>    <dbl>     <dbl>     <dbl>    <dbl>
    ##  1 China              <tibble> <lm>  year    -0.512   0.00961     -53.3 1.09e-29
    ##  2 East Asia          <tibble> <lm>  year    -0.498   0.00941     -52.9 1.29e-29
    ##  3 Equatorial Guinea  <tibble> <lm>  year    -0.488   0.0115      -42.3 6.23e-27
    ##  4 Maldives           <tibble> <lm>  year    -0.477   0.0159      -30.0 7.77e-23
    ##  5 Southeast Asia, E~ <tibble> <lm>  year    -0.419   0.00661     -63.3 9.10e-32
    ##  6 Yemen              <tibble> <lm>  year    -0.392   0.00484     -81.0 9.41e-35
    ##  7 Western Pacific R~ <tibble> <lm>  year    -0.392   0.00681     -57.6 1.27e-30
    ##  8 Sudan              <tibble> <lm>  year    -0.390   0.0119      -32.9 6.44e-24
    ##  9 Vietnam            <tibble> <lm>  year    -0.365   0.00388     -94.1 1.42e-36
    ## 10 East Asia & Pacif~ <tibble> <lm>  year    -0.362   0.00578     -62.6 1.24e-31
    ## # ... with 257 more rows
…
