…
**Variable type: POSIXct**

| skim_variable | n_missing | complete_rate | min                 | max                 | median              | n_unique |
|:--------------|----------:|--------------:|:--------------------|:--------------------|:--------------------|---------:|
| release_date  |         0 |             1 | 2014-01-01 00:00:00 | 2021-12-31 00:00:00 | 2017-12-28 00:00:00 |     2922 |
| last_updated  |         0 |             1 | 2020-10-10 21:33:29 | 2022-01-14 15:02:31 | 2022-01-12 01:02:32 |    63077 |

``` r
product %>% 
  count(makers, sort = TRUE)
```

    ## # A tibble: 47,420 x 2
    ##    makers                n
    ##    <chr>             <int>
    ##  1 []                17152
    ##  2 ['mijustin']         55
    ##  3 ['ericosiu']         37
    ##  4 ['levelsio']         34
    ##  5 ['mubashariqbal']    33
    ##  6 ['evanspiegel']      32
    ##  7 ['tim1']             30
    ##  8 ['awt']              29
    ##  9 ['clarkvalberg']     29
    ## 10 ['jason']            29
    ## # ... with 47,410 more rows
…
