…
``` r
nyt <- nyt_titles %>% 
  full_join(nyt_full)
```

    ## Joining, by = c("title", "author", "year")

``` r
nyt %>% 
  count(author, sort = TRUE)
```

    ## # A tibble: 2,206 x 2
    ##    author                 n
    ##    <chr>              <int>
    ##  1 Danielle Steel       957
    ##  2 Stephen King         892
    ##  3 John Grisham         789
    ##  4 Taylor Caldwell      524
    ##  5 James A. Michener    494
    ##  6 Robert Ludlum        406
    ##  7 Leon Uris            405
    ##  8 Mary Higgins Clark   403
    ##  9 David Baldacci       396
    ## 10 Nicholas Sparks      390
    ## # ... with 2,196 more rows
…
